tekst based rpg    (KAMER 4 en 5 zijn nog niet af.)

onderverdeeld in kamers(Rooms)
Kamers 1 t/m 5:
  ___
 |   |
 |_5_|
  _|_    ___    ___
 |   |__|   |__|   |
 |_3_|  |_2_|  |_4_|
         _|_
        |   |
        |_1_|


de class Rooms is om per kamer de opties weer te geven van kanten die je opkan. 
(numerieke toetsen: 4 is links 8 is boven 6 is recht 2 is onder)   

staat = {1:0,2:0,3:0,4:0,5:0}  keys is gelijk aan kamernummer

de dictionary staat is omde staat van de kamer te bepalen en zo de juiste omschrijving aan te kunnen halen. 
(bv. Room1 staat 0: de deur is nog dicht
     Room1 staat 1: de deur is open      )





structuur:
-betere oplossing: misschien per kamer ipv alle definities van de kamers in main.py ???



mogelijkheden in de toekomst?:

-testen
-kamers toevoegen.
-dood kunnen gaan(meerdere levens).
-kaart om te zien waar je ben/ al ben geweest.
-
